module democicd

go 1.14

require (
	github.com/labstack/echo/v4 v4.1.16
	github.com/valyala/fasttemplate v1.1.1 // indirect
	golang.org/x/net v0.0.0-20200625001655-4c5254603344 // indirect
	golang.org/x/sys v0.0.0-20200625212154-ddb9806d33ae // indirect
	golang.org/x/text v0.3.3 // indirect
)
